SP3-I2S_Transmitter/tb/mef.vcd
$date
    Apr 24, 2024  14:01:14
$end
$version
    TOOL:	xmsim	20.09-s003
$end
$timescale
    1 ps
$end

$scope module i2s_tb $end

$scope module DUT $end
$var parameter 32 !    WIDTH $end
$var wire      1 "    clk  $end
$var wire      1 #    rst  $end
$var wire     16 $    Tx [15:0] $end
$var reg       1 %    ready $end
$var reg       1 &    SCLK $end
$var reg       1 '    WS $end
$var reg       1 (    SD $end
$var reg       2 )    state [1:0] $end
$var reg       2 *    next_state [1:0] $end
$var reg       1 +    ready_temp $end
$var reg       1 ,    WS_temp $end
$var reg       1 -    SD_temp $end
$var reg       1 .    enable $end
$var reg      16 /    Tx_temp [15:0] $end
$var parameter 32 0    BIT_WIDTH $end
$var reg       5 1    bit_cnt [4:0] $end
$upscope $end

$upscope $end

$enddefinitions $end
$dumpvars
b101 0
b10000 !
0"
1#
bx $
0%
0&
0'
0(
b0 )
b1 *
0+
0,
0-
1.
bx /
b0 1
$end
#1000
0#
1"
1&
b1 1
b1 )
b0 1
b10 *
#2000
b1010101001011001 $
0"
b1010101001011001 /
0&
#3000
1"
1&
b1 1
b10 )
b10 1
1+
b1 )
1%
#4000
0"
0&
#5000
1"
1&
b11 1
b10 )
b100 1
b1 )
1-
1(
#6000
0"
0&
#7000
1"
1&
b101 1
b10 )
b110 1
b1 )
#8000
0"
0&
#9000
1"
1&
b111 1
b10 )
b1000 1
b1 )
0-
0(
#10000
0"
0&
#11000
1"
1&
b1001 1
b10 )
b1010 1
b1 )
#12000
0"
0&
#13000
1"
1&
b1011 1
b10 )
b1100 1
b1 )
#14000
0"
0&
#15000
1"
1&
b1101 1
b10 )
b1110 1
b1 )
#16000
0"
0&
#17000
1"
1&
b1111 1
b10 )
b10000 1
1,
1'
#18000
0"
0&
#19000
1"
1&
b10001 1
b10010 1
#20000
0"
0&
#21000
1"
1&
b10011 1
b10100 1
#22000
0"
0&
#23000
1"
1&
b10101 1
b10110 1
#24000
0"
0&
#25000
1"
1&
b10111 1
b11000 1
#26000
0"
0&
#27000
1"
1&
b11001 1
b11010 1
#28000
0"
0&
#29000
1"
1&
b11011 1
b11100 1
#30000
0"
0&
#31000
1"
1&
b11101 1
b11110 1
#32000
0"
0&
#33000
1"
1&
b11111 1
b0 1
b1 )
1-
1(
#34000
0"
0&
#35000
1"
1&
b1 1
b10 )
b10 1
b1 )
0-
0(
#36000
0"
0&
#37000
1"
1&
b11 1
b10 )
b100 1
b1 )
1-
1(
#38000
0"
0&
#39000
1"
1&
b101 1
b10 )
b110 1
b1 )
#40000
0"
0&
#41000
1"
1&
b111 1
b10 )
b1000 1
b1 )
0-
0(
#42000
0"
0&
#43000
1"
1&
b1001 1
b10 )
b1010 1
b1 )
#44000
0"
0&
#45000
1"
1&
b1011 1
b10 )
b1100 1
b1 )
#46000
0"
0&
#47000
1"
1&
b1101 1
b10 )
b1110 1
b1 )
#48000
0"
0&
#49000
1"
1&
b1111 1
b10 )
b10000 1
#50000
0"
0&
#51000
1"
1&
b10001 1
b10010 1
#52000
0"
0&
#53000
1"
1&
b10011 1
b10100 1
#54000
0"
0&
#55000
1"
1&
b10101 1
b10110 1
#56000
0"
0&
#57000
1"
1&
b10111 1
b11000 1
#58000
0"
0&
#59000
1"
1&
b11001 1
b11010 1
#60000
0"
0&
#61000
1"
1&
b11011 1
b11100 1
#62000
0"
0&
#63000
1"
1&
b11101 1
b11110 1
#64000
0"
0&
#65000
1"
1&
b11111 1
b0 1
b1 )
1-
1(
#66000
0"
0&
#67000
1"
1&
b1 1
b10 )
b10 1
b1 )
0-
0(
#68000
0"
0&
#69000
1"
1&
b11 1
b10 )
b100 1
b1 )
1-
1(
#70000
0"
0&
#71000
1"
1&
b101 1
b10 )
b110 1
b1 )
#72000
0"
0&
#73000
1"
1&
b111 1
b10 )
b1000 1
b1 )
0-
0(
#74000
0"
0&
#75000
1"
1&
b1001 1
b10 )
b1010 1
b1 )
#76000
0"
0&
#77000
1"
1&
b1011 1
b10 )
b1100 1
b1 )
#78000
0"
0&
#79000
1"
1&
b1101 1
b10 )
b1110 1
b1 )
#80000
0"
0&
#81000
1"
1&
b1111 1
b10 )
b10000 1
#82000
0"
0&
#83000
1"
1&
b10001 1
b10010 1
#84000
0"
0&
#85000
1"
1&
b10011 1
b10100 1
#86000
0"
0&
#87000
1"
1&
b10101 1
b10110 1
#88000
0"
0&
#89000
1"
1&
b10111 1
b11000 1
#90000
0"
0&
#91000
1"
1&
b11001 1
b11010 1
#92000
0"
0&
#93000
1"
1&
b11011 1
b11100 1
#94000
0"
0&
#95000
1"
1&
b11101 1
b11110 1
#96000
0"
0&
#97000
1"
1&
b11111 1
b0 1
b1 )
1-
1(
#98000
0"
0&
#99000
1"
1&
b1 1
b10 )
b10 1
b1 )
0-
0(
#100000
0"
0&
#101000
1"
1&
b11 1
b10 )
b100 1
b1 )
1-
1(
